{
  "0": {
    "name":"Coca-cola",
    "quantity":"33cl",
    "price":"1.60"
  },
  "1": {
    "name":"Coca-cola cherry",
    "quantity":"33cl",
    "price":"1.60"
  },
  "2": {
    "name":"Fanta",
    "quantity":"33cl",
    "price":"1.60"
  },
  "3": {
    "name":"Heineken",
    "quantity":"33cl",
    "price":"3"
  },
  "4": {
    "name":"Lambrusco Rouge",
    "quantity":"1l",
    "price":"7"
  }
}
